hdl/waveforms/test.vcd
$version Generated by VerilatedVcd $end
$timescale 10ps $end
 $scope module TOP $end
  $scope module doublesha_tb $end
   $var wire 1 '! clk_i $end
   $var wire 1 (! rst_i $end
   $var wire 1 )! start_tick $end
   $var wire 640 *! block_info [639:0] $end
   $var wire 1 # complete $end
   $var wire 256 $ hash [255:0] $end
   $scope module DUT $end
    $var wire 1 '! clk_i $end
    $var wire 1 (! rst_i $end
    $var wire 1 )! start_tick $end
    $var wire 640 *! block_info [639:0] $end
    $var wire 1 # complete $end
    $var wire 256 $ hash [255:0] $end
    $var wire 32 , text_i [31:0] $end
    $var wire 512 - tmp_i [511:0] $end
    $var wire 32 >! tmp [31:0] $end
    $var wire 1024 ?! message [1023:0] $end
    $var wire 256 = first_hash [255:0] $end
    $var wire 3 E cmd_i [2:0] $end
    $var wire 1 F cmd_w_i $end
    $var wire 5 _! hash_index [4:0] $end
    $var wire 32 G text_o [31:0] $end
    $var wire 4 H cmd_o [3:0] $end
    $var wire 1 I second_cycle $end
    $var wire 4 J delay_left [3:0] $end
    $var wire 4 `! output_index [3:0] $end
    $var wire 5 K internal_index [4:0] $end
    $var wire 4 L state [3:0] $end
    $scope module sha_core $end
     $var wire 1 '! clk_i $end
     $var wire 1 (! rst_i $end
     $var wire 32 , text_i [31:0] $end
     $var wire 32 G text_o [31:0] $end
     $var wire 3 E cmd_i [2:0] $end
     $var wire 1 F cmd_w_i $end
     $var wire 4 H cmd_o [3:0] $end
     $var wire 4 H cmd [3:0] $end
     $var wire 7 M round [6:0] $end
     $var wire 7 N round_plus_1 [6:0] $end
     $var wire 3 O read_counter [2:0] $end
     $var wire 32 P H0 [31:0] $end
     $var wire 32 Q H1 [31:0] $end
     $var wire 32 R H2 [31:0] $end
     $var wire 32 S H3 [31:0] $end
     $var wire 32 T H4 [31:0] $end
     $var wire 32 U H5 [31:0] $end
     $var wire 32 V H6 [31:0] $end
     $var wire 32 W H7 [31:0] $end
     $var wire 32 X W0 [31:0] $end
     $var wire 32 Y W1 [31:0] $end
     $var wire 32 Z W2 [31:0] $end
     $var wire 32 [ W3 [31:0] $end
     $var wire 32 \ W4 [31:0] $end
     $var wire 32 ] W5 [31:0] $end
     $var wire 32 ^ W6 [31:0] $end
     $var wire 32 _ W7 [31:0] $end
     $var wire 32 ` W8 [31:0] $end
     $var wire 32 a W9 [31:0] $end
     $var wire 32 b W10 [31:0] $end
     $var wire 32 c W11 [31:0] $end
     $var wire 32 d W12 [31:0] $end
     $var wire 32 e W13 [31:0] $end
     $var wire 32 f W14 [31:0] $end
     $var wire 32 g Wt [31:0] $end
     $var wire 32 h Kt [31:0] $end
     $var wire 32 i A [31:0] $end
     $var wire 32 j B [31:0] $end
     $var wire 32 k C [31:0] $end
     $var wire 32 l D [31:0] $end
     $var wire 32 m E [31:0] $end
     $var wire 32 n F [31:0] $end
     $var wire 32 o G [31:0] $end
     $var wire 32 p H [31:0] $end
     $var wire 1 q busy $end
     $var wire 32 r f1_EFG_32 [31:0] $end
     $var wire 32 s f2_ABC_32 [31:0] $end
     $var wire 32 t f3_A_32 [31:0] $end
     $var wire 32 u f4_E_32 [31:0] $end
     $var wire 32 v f5_W1_32 [31:0] $end
     $var wire 32 w f6_W14_32 [31:0] $end
     $var wire 32 x T1_32 [31:0] $end
     $var wire 32 y T2_32 [31:0] $end
     $var wire 32 z next_Wt [31:0] $end
     $var wire 32 { next_E [31:0] $end
     $var wire 32 | next_A [31:0] $end
     $var wire 256 } SHA256_result [255:0] $end
    $upscope $end
   $upscope $end
  $upscope $end
 $upscope $end
$enddefinitions $end


#0
0#
b0000000000000000000000000000000000000000000000000000000000000000000000000000000000000000000000000000000000000000000000000000000000000000000000000000000000000000000000000000000000000000000000000000000000000000000000000000000000000000000000000000000000000000 $
b00000000000000000000000000000000 ,
b00000000000000000000000000000000000000000000000000000000000000000000000000000000000000000000000000000000000000000000000000000000000000000000000000000000000000000000000000000000000000000000000000000000000000000000000000000000000000000000000000000000000000000000000000000000000000000000000000000000000000000000000000000000000000000000000000000000000000000000000000000000000000000000000000000000000000000000000000000000000000000000000000000000000000000000000000000000000000000000000000000000000000000000000000000000 -
b0000000000000000000000000000000000000000000000000000000000000000000000000000000000000000000000000000000000000000000000000000000000000000000000000000000000000000000000000000000000000000000000000000000000000000000000000000000000000000000000000000000000000000 =
b010 E
1F
b00000000000000000000000000000000 G
b0000 H
0I
b0000 J
b00000 K
b0000 L
b0000000 M
b0000001 N
b000 O
b00000000000000000000000000000000 P
b00000000000000000000000000000000 Q
b00000000000000000000000000000000 R
b00000000000000000000000000000000 S
b00000000000000000000000000000000 T
b00000000000000000000000000000000 U
b00000000000000000000000000000000 V
b00000000000000000000000000000000 W
b00000000000000000000000000000000 X
b00000000000000000000000000000000 Y
b00000000000000000000000000000000 Z
b00000000000000000000000000000000 [
b00000000000000000000000000000000 \
b00000000000000000000000000000000 ]
b00000000000000000000000000000000 ^
b00000000000000000000000000000000 _
b00000000000000000000000000000000 `
b00000000000000000000000000000000 a
b00000000000000000000000000000000 b
b00000000000000000000000000000000 c
b00000000000000000000000000000000 d
b00000000000000000000000000000000 e
b00000000000000000000000000000000 f
b00000000000000000000000000000000 g
b00000000000000000000000000000000 h
b00000000000000000000000000000000 i
b00000000000000000000000000000000 j
b00000000000000000000000000000000 k
b00000000000000000000000000000000 l
b00000000000000000000000000000000 m
b00000000000000000000000000000000 n
b00000000000000000000000000000000 o
b00000000000000000000000000000000 p
0q
b00000000000000000000000000000000 r
b00000000000000000000000000000000 s
b00000000000000000000000000000000 t
b00000000000000000000000000000000 u
b00000000000000000000000000000000 v
b00000000000000000000000000000000 w
b00000000000000000000000000000000 x
b00000000000000000000000000000000 y
b00000000000000000000000000000000 z
b00000000000000000000000000000000 {
b00000000000000000000000000000000 |
b0000000000000000000000000000000000000000000000000000000000000000000000000000000000000000000000000000000000000000000000000000000000000000000000000000000000000000000000000000000000000000000000000000000000000000000000000000000000000000000000000000000000000000 }
0'!
0(!
1)!
b0000000000000000011000000010000011001011100001011011101001010101100111000110100001100000111000101000100110111011010110000001000010110101000001101011101010101110101110101010100010110000100000011110011000001001000010110000000000000000000000000000000000000000000000000000000000000000000000001101010101010001001101000000111001010100110000111010011010100011011100100011110010100010001011000001001101011111101110111111010010111110110100101011101010110111000100000010011101010110100001011101011101010001101011110000000000110011010111010111110110000101011011010110000101100010011000000110111111011111000011000001011100001000110011001011000000111011 *!
b00000000000000000000000000000000 >!
b0000000000000000000000000000000000000000000000000000000000000000000000000000000000000000000000000000000000000000000000000000000000000000000000000000000000000000000000000000000000000000000000000000000000000000000000000000000000000000000000000000000000000000000000000000000000000000000000000000000000000000000000000000000000000000000000000000000000000000000000000000000000000000000000000000000000000000000000000000000000000000000000000000000000000000000000000000000000000000000000000000000000000000000000000000000000000000000000000000000000000000000000000000000000000000000000000000000000000000000000000000000000000000000000000000000000000000000000000000000000000000000000000000000000000000000000000000000000000000000000000000000000000000000000000000000000000000000000000000000000000000000000000000000000000000000000000000000000000000000000000000000000000000000000000000000000000000000000000000000000000000000000000000000000000000000000000000000000000000000000000000000000000000000000000000000000000000000000000000000000000000 ?!
b00000 _!
b0000 `!
#500
b00000000000000000110000000100000110010111000010110111010010101011001110001101000011000001110001010001001101110110101100000010000101101010000011010111010101011101011101010101000101100001000000111100110000010010000101100000000000000000000000000000000000000000000000000000000000000000000000011010101010100010011010000001110010101001100001110100110101000110111001000111100101000100010110000010011010111111011101111110100101111101101001010111010101101110001000000100111010101101000010111010111010100011010111100000000 -
b0010 H
b0001 L
b01000010100010100010111110011000 h
b01000010100010100010111110011000 x
b01000010100010100010111110011000 {
b01000010100010100010111110011000 |
1'!
#1000
0'!
#1500
b00000000000000000110000000100000 ,
b11001011100001011011101001010101100111000110100001100000111000101000100110111011010110000001000010110101000001101011101010101110101110101010100010110000100000011110011000001001000010110000000000000000000000000000000000000000000000000000000000000000000000001101010101010001001101000000111001010100110000111010011010100011011100100011110010100010001011000001001101011111101110111111010010111110110100101011101010110111000100000010011101010110100001011101011101010001101011110000000000000000000000000000000000000000 -
0F
b0000 H
b00001 K
b0000001 M
b0000010 N
b01101010000010011110011001100111 P
b10111011011001111010111010000101 Q
b00111100011011101111001101110010 R
b10100101010011111111010100111010 S
b01010001000011100101001001111111 T
b10011011000001010110100010001100 U
b00011111100000111101100110101011 V
b01011011111000001100110100011001 W
b00000000000000000110000000100000 X
b00000000000000000110000000100000 g
b01101010000010011110011001100111 i
b10111011011001111010111010000101 j
b00111100011011101111001101110010 k
b10100101010011111111010100111010 l
b01010001000011100101001001111111 m
b10011011000001010110100010001100 n
b00011111100000111101100110101011 o
b01011011111000001100110100011001 p
1q
b00011111100001011100100110001100 r
b00111010011011111110011001100111 s
b11001110001000001011010001111110 t
b00110101100001110010011100101011 u
b11110011011110000100110110001000 x
b00001000100100001001101011100101 y
b00000000000000000110000000100000 z
b10011000110010000100001011000010 {
b11111100000010001110100001101101 |
b0110101000001001111001100110011110111011011001111010111010000101001111000110111011110011011100101010010101001111111101010011101001010001000011100101001001111111100110110000010101101000100011000001111110000011110110011010101101011011111000001100110100011001 }
1'!
#2000
0'!
#2500
b11001011100001011011101001010101 ,
b10011100011010000110000011100010100010011011101101011000000100001011010100000110101110101010111010111010101010001011000010000001111001100000100100001011000000000000000000000000000000000000000000000000000000000000000000000000110101010101000100110100000011100101010011000011101001101010001101110010001111001010001000101100000100110101111110111011111101001011111011010010101110101011011100010000001001110101011010000101110101110101000110101111000000000000000000000000000000000000000000000000000000000000000000000000 -
b1000 H
b00010 K
b0000010 M
b0000011 N
b11001011100001011011101001010101 Y
b11001011100001011011101001010101 g
b01110001001101110100010010010001 h
b11111100000010001110100001101101 i
b01101010000010011110011001100111 j
b10111011011001111010111010000101 k
b00111100011011101111001101110010 l
b10011000110010000100001011000010 m
b01010001000011100101001001111111 n
b10011011000001010110100010001100 o
b00011111100000111101100110101011 p
b00010011000011010110101001001110 r
b11111010000010011110111001100101 s
b00011111110011000110110110101100 t
b00110110000100010101100101001111 u
b11011100011100101100111011011111 v
b10100101010111111001110000101110 x
b00011001110101100101110000010001 y
b11011100011100110010111011111111 z
b11100001110011101000111110100000 {
b10111111001101011111100000111111 |
b1111110000001000111010000110110101101010000010011110011001100111101110110110011110101110100001010011110001101110111100110111001010011000110010000100001011000010010100010000111001010010011111111001101100000101011010001000110000011111100000111101100110101011 }
1'!
#3000
0'!
#3500
b10011100011010000110000011100010 ,
b10001001101110110101100000010000101101010000011010111010101011101011101010101000101100001000000111100110000010010000101100000000000000000000000000000000000000000000000000000000000000000000000011010101010100010011010000001110010101001100001110100110101000110111001000111100101000100010110000010011010111111011101111110100101111101101001010111010101101110001000000100111010101101000010111010111010100011010111100000000000000000000000000000000000000000000000000000000000000000000000000000000000000000000000000000000 -
b00011 K
b0000011 M
b0000100 N
b10011100011010000110000011100010 Z
b10011100011010000110000011100010 g
b10110101110000001111101111001111 h
b10111111001101011111100000111111 i
b11111100000010001110100001101101 j
b01101010000010011110011001100111 k
b10111011011001111010111010000101 l
b11100001110011101000111110100000 m
b10011000110010000100001011000010 n
b01010001000011100101001001111111 o
b10011011000001010110100010001100 p
b10010000110010000101001011011111 r
b11111110000010011110100001101111 s
b11111001110100000111100101011100 t
b10010000110111001101001110011111 u
b00001110110100111110101110111011 x
b11110111110110100110000111001011 y
b11001010001110111001101001000000 {
b00000110101011100100110110000110 |
b1011111100110101111110000011111111111100000010001110100001101101011010100000100111100110011001111011101101100111101011101000010111100001110011101000111110100000100110001100100001000010110000100101000100001110010100100111111110011011000001010110100010001100 }
1'!
#4000
0'!
#4500
b10001001101110110101100000010000 ,
b10110101000001101011101010101110101110101010100010110000100000011110011000001001000010110000000000000000000000000000000000000000000000000000000000000000000000001101010101010001001101000000111001010100110000111010011010100011011100100011110010100010001011000001001101011111101110111111010010111110110100101011101010110111000100000010011101010110100001011101011101010001101011110000000000000000000000000000000000000000000000000000000000000000000000000000000000000000000000000000000000000000000000000000000000000000 -
b00100 K
b0000100 M
b0000101 N
b10001001101110110101100000010000 [
b10001001101110110101100000010000 g
b11101001101101011101101110100101 h
b00000110101011100100110110000110 i
b10111111001101011111100000111111 j
b11111100000010001110100001101101 k
b01101010000010011110011001100111 l
b11001010001110111001101001000000 m
b11100001110011101000111110100000 n
b10011000110010000100001011000010 o
b01010001000011100101001001111111 p
b11010000110010101100101010000010 r
b10111110001011001110100000101111 s
b01010100101011011011111000001001 t
b01010110111111001000100101111111 u
b11101100010001101101101000110101 x
b00010010110110101010011000111000 y
b01010110010100001100000010011100 {
b11111111001000011000000001101101 |
b0000011010101110010011011000011010111111001101011111100000111111111111000000100011101000011011010110101000001001111001100110011111001010001110111001101001000000111000011100111010001111101000001001100011001000010000101100001001010001000011100101001001111111 }
1'!
#5000
0'!
#5500
b10110101000001101011101010101110 ,
b10111010101010001011000010000001111001100000100100001011000000000000000000000000000000000000000000000000000000000000000000000000110101010101000100110100000011100101010011000011101001101010001101110010001111001010001000101100000100110101111110111011111101001011111011010010101110101011011100010000001001110101011010000101110101110101000110101111000000000000000000000000000000000000000000000000000000000000000000000000000000000000000000000000000000000000000000000000000000000000000000000000000000000000000000000000 -
b00101 K
b0000101 M
b0000110 N
b10110101000001101011101010101110 \
b10110101000001101011101010101110 g
b00111001010101101100001001011011 h
b11111111001000011000000001101101 i
b00000110101011100100110110000110 j
b10111111001101011111100000111111 k
b11111100000010001110100001101101 l
b01010110010100001100000010011100 m
b11001010001110111001101001000000 n
b11100001110011101000111110100000 o
b10011000110010000100001011000010 p
b11100011100111101000111100100000 r
b10111111001001011100100000101111 s
b11111010101001100010111011101011 t
b01001010101100111100011100110001 u
b10110101011110000001011000011100 x
b10111001110010111111011100011010 y
b10110001100000001111111010001001 {
b01101111010001000000110100110110 |
b1111111100100001100000000110110100000110101011100100110110000110101111110011010111111000001111111111110000001000111010000110110101010110010100001100000010011100110010100011101110011010010000001110000111001110100011111010000010011000110010000100001011000010 }
1'!
#6000
0'!
#6500
b10111010101010001011000010000001 ,
b11100110000010010000101100000000000000000000000000000000000000000000000000000000000000000000000011010101010100010011010000001110010101001100001110100110101000110111001000111100101000100010110000010011010111111011101111110100101111101101001010111010101101110001000000100111010101101000010111010111010100011010111100000000000000000000000000000000000000000000000000000000000000000000000000000000000000000000000000000000000000000000000000000000000000000000000000000000000000000000000000000000000000000000000000000000 -
b00110 K
b0000110 M
b0000111 N
b10111010101010001011000010000001 ]
b10111010101010001011000010000001 g
b01011001111100010001000111110001 h
b01101111010001000000110100110110 i
b11111111001000011000000001101101 j
b00000110101011100100110110000110 k
b10111111001101011111100000111111 l
b10110001100000001111111010001001 m
b01010110010100001100000010011100 n
b11001010001110111001101001000000 o
b11100001110011101000111110100000 p
b01011010001110111100000011001000 r
b01101111001001000000110100100110 s
b11100010010101101010000011010000 t
b00110111100011110111011100111101 u
b10001000001100111000101000010111 x
b01010001011110101010110111110110 y
b01000111011010011000001001010110 {
b11011001101011100011100000001101 |
b0110111101000100000011010011011011111111001000011000000001101101000001101010111001001101100001101011111100110101111110000011111110110001100000001111111010001001010101100101000011000000100111001100101000111011100110100100000011100001110011101000111110100000 }
1'!
#7000
0'!
#7500
b11100110000010010000101100000000 ,
b00000000000000000000000000000000000000000000000000000000000000001101010101010001001101000000111001010100110000111010011010100011011100100011110010100010001011000001001101011111101110111111010010111110110100101011101010110111000100000010011101010110100001011101011101010001101011110000000000000000000000000000000000000000000000000000000000000000000000000000000000000000000000000000000000000000000000000000000000000000000000000000000000000000000000000000000000000000000000000000000000000000000000000000000000000000 -
b00111 K
b0000111 M
b0001000 N
b11100110000010010000101100000000 ^
b11100110000010010000101100000000 g
b10010010001111111000001010100100 h
b11011001101011100011100000001101 i
b01101111010001000000110100110110 j
b11111111001000011000000001101101 k
b00000110101011100100110110000110 l
b01000111011010011000001001010110 m
b10110001100000001111111010001001 n
b01010110010100001100000010011100 o
b11001010001110111001101001000000 p
b00010001000100001100001010001000 r
b11111111001001000000100000101101 s
b00001110111001010111010000010100 t
b10100111000101000110000000011010 u
b11111010101010010100101010000110 x
b00001110000010010111110001000001 y
b00000001010101111001100000001100 {
b00001000101100101100011011000111 |
b1101100110101110001110000000110101101111010001000000110100110110111111110010000110000000011011010000011010101110010011011000011001000111011010011000001001010110101100011000000011111110100010010101011001010000110000001001110011001010001110111001101001000000 }
1'!
#8000
0'!
#8500
b00000000000000000000000000000000 ,
b00000000000000000000000000000000110101010101000100110100000011100101010011000011101001101010001101110010001111001010001000101100000100110101111110111011111101001011111011010010101110101011011100010000001001110101011010000101110101110101000110101111000000000000000000000000000000000000000000000000000000000000000000000000000000000000000000000000000000000000000000000000000000000000000000000000000000000000000000000000000000000000000000000000000000000000000000000000000000000000000000000000000000000000000000000000 -
b01000 K
b0001000 M
b0001001 N
b00000000000000000000000000000000 g
b10101011000111000101111011010101 h
b00001000101100101100011011000111 i
b11011001101011100011100000001101 j
b01101111010001000000110100110110 k
b11111111001000011000000001101101 l
b00000001010101111001100000001100 m
b01000111011010011000001001010110 n
b10110001100000001111111010001001 o
b01010110010100001100000010011100 p
b10110001110000011110011010000101 r
b01001001101001100000110000000111 s
b00111111000011111110100000000101 t
b10011010010010010111001010010011 u
b01001101011110000111100010001001 x
b10001000101101011111010000001100 y
b01001100100110011111100011110110 {
b11010110001011100110110010010101 |
b0000100010110010110001101100011111011001101011100011100000001101011011110100010000001101001101101111111100100001100000000110110100000001010101111001100000001100010001110110100110000010010101101011000110000000111111101000100101010110010100001100000010011100 }
1'!
#9000
0'!
#9500
b11010101010100010011010000001110010101001100001110100110101000110111001000111100101000100010110000010011010111111011101111110100101111101101001010111010101101110001000000100111010101101000010111010111010100011010111100000000000000000000000000000000000000000000000000000000000000000000000000000000000000000000000000000000000000000000000000000000000000000000000000000000000000000000000000000000000000000000000000000000000000000000000000000000000000000000000000000000000000000000000000000000000000000000000000000000 -
b01001 K
b0001001 M
b0001010 N
b11011000000001111010101010011000 h
b11010110001011100110110010010101 i
b00001000101100101100011011000111 j
b11011001101011100011100000001101 k
b01101111010001000000110100110110 l
b01001100100110011111100011110110 m
b00000001010101111001100000001100 n
b01000111011010011000001001010110 o
b10110001100000001111111010001001 p
b00000011011100011001101000000100 r
b11011000101011100110110010000101 s
b10101000100101110111110100001110 t
b10001011000001111000111111111010 u
b00011000000000011101001100011111 x
b10000001010001011110100110010011 y
b10000111010001011110000001010101 {
b10011001010001111011110010110010 |
b1101011000101110011011001001010100001000101100101100011011000111110110011010111000111000000011010110111101000100000011010011011001001100100110011111100011110110000000010101011110011000000011000100011101101001100000100101011010110001100000001111111010001001 }
1'!
#10000
0'!
#10500
b11010101010100010011010000001110 ,
b01010100110000111010011010100011011100100011110010100010001011000001001101011111101110111111010010111110110100101011101010110111000100000010011101010110100001011101011101010001101011110000000000000000000000000000000000000000000000000000000000000000000000000000000000000000000000000000000000000000000000000000000000000000000000000000000000000000000000000000000000000000000000000000000000000000000000000000000000000000000000000000000000000000000000000000000000000000000000000000000000000000000000000000000000000000 -
b01010 K
b0001010 M
b0001011 N
b11010101010100010011010000001110 a
b11010101010100010011010000001110 g
b00010010100000110101101100000001 h
b10011001010001111011110010110010 i
b11010110001011100110110010010101 j
b00001000101100101100011011000111 k
b11011001101011100011100000001101 l
b10000111010001011110000001010101 m
b01001100100110011111100011110110 n
b00000001010101111001100000001100 o
b01000111011010011000001001010110 p
b00000100000100111111100001011100 r
b10011000001001101110110010010111 s
b01011101001101111110111101110100 t
b11111110010111011101010111111110 u
b00110001101011111101111110111111 x
b11110101010111101101110000001011 y
b10110001110001000110001100001101 z
b00001011010111100001011111001100 {
b00100111000011101011101111001010 |
b1001100101000111101111001011001011010110001011100110110010010101000010001011001011000110110001111101100110101110001110000000110110000111010001011110000001010101010011001001100111111000111101100000000101010111100110000000110001000111011010011000001001010110 }
1'!
#11000
0'!
#11500
b01010100110000111010011010100011 ,
b01110010001111001010001000101100000100110101111110111011111101001011111011010010101110101011011100010000001001110101011010000101110101110101000110101111000000000000000000000000000000000000000000000000000000000000000000000000000000000000000000000000000000000000000000000000000000000000000000000000000000000000000000000000000000000000000000000000000000000000000000000000000000000000000000000000000000000000000000000000000000000000000000000000000000000000000000000000000000000000000000000000000000000000000000000000 -
b01011 K
b0001011 M
b0001100 N
b01010100110000111010011010100011 b
b01010100110000111010011010100011 g
b00100100001100011000010110111110 h
b00100111000011101011101111001010 i
b10011001010001111011110010110010 j
b11010110001011100110110010010101 k
b00001000101100101100011011000111 l
b00001011010111100001011111001100 m
b10000111010001011110000001010101 n
b01001100100110011111100011110110 o
b00000001010101111001100000001100 p
b01000111110001011110100001110110 r
b10010111000011101011110010010010 s
b01101101011111011011111000011011 t
b01100110101001111111010110011000 u
b00101000101110101010001001111011 x
b00000100100011000111101010101101 y
b00110001011011010110100101000010 {
b00101101010001110001110100101000 |
b0010011100001110101110111100101010011001010001111011110010110010110101100010111001101100100101010000100010110010110001101100011100001011010111100001011111001100100001110100010111100000010101010100110010011001111110001111011000000001010101111001100000001100 }
1'!
#12000
0'!
#12500
b01110010001111001010001000101100 ,
b00010011010111111011101111110100101111101101001010111010101101110001000000100111010101101000010111010111010100011010111100000000000000000000000000000000000000000000000000000000000000000000000000000000000000000000000000000000000000000000000000000000000000000000000000000000000000000000000000000000000000000000000000000000000000000000000000000000000000000000000000000000000000000000000000000000000000000000000000000000000000000000000000000000000000000000000000000000000000000000000000000000000000000000000000000000 -
b01100 K
b0001100 M
b0001101 N
b01110010001111001010001000101100 c
b01110010001111001010001000101100 g
b01010101000011000111110111000011 h
b00101101010001110001110100101000 i
b00100111000011101011101111001010 j
b10011001010001111011110010110010 k
b11010110001011100110110010010101 l
b00110001011011010110100101000010 m
b00001011010111100001011111001100 n
b10000111010001011110000001010101 o
b01001100100110011111100011110110 p
b10000111010011001000000101010101 r
b00101101010001111011110110101010 s
b11111110011001000000110111000111 t
b10010110001101110011100100010000 u
b00110001011001101101001101001010 x
b00101011101010111100101101110001 y
b00000111100101010011111111011111 {
b01011101000100101001111010111011 |
b0010110101000111000111010010100000100111000011101011101111001010100110010100011110111100101100101101011000101110011011001001010100110001011011010110100101000010000010110101111000010111110011001000011101000101111000000101010101001100100110011111100011110110 }
1'!
#13000
0'!
#13500
b00010011010111111011101111110100 ,
b10111110110100101011101010110111000100000010011101010110100001011101011101010001101011110000000000000000000000000000000000000000000000000000000000000000000000000000000000000000000000000000000000000000000000000000000000000000000000000000000000000000000000000000000000000000000000000000000000000000000000000000000000000000000000000000000000000000000000000000000000000000000000000000000000000000000000000000000000000000000000000000000000000000000000000000000000000000000000000000000000000000000000000000000000000000 -
b01101 K
b0001101 M
b0001110 N
b00010011010111111011101111110100 d
b00010011010111111011101111110100 g
b01110010101111100101110101110100 h
b01011101000100101001111010111011 i
b00101101010001110001110100101000 j
b00100111000011101011101111001010 k
b10011001010001111011110010110010 l
b00000111100101010011111111011111 m
b00110001011011010110100101000010 n
b00001011010111100001011111001100 o
b10000111010001011110000001010101 p
b00001001010011110010100101000010 r
b00101101000001101001111110101010 s
b01101000111001001010001001001110 t
b01001101011000010100100111011011 u
b01100100000101000110110011011010 x
b10010101111010110100000111111000 y
b11111101010111000010100110001100 {
b11111001111111111010111011010010 |
b0101110100010010100111101011101100101101010001110001110100101000001001110000111010111011110010101001100101000111101111001011001000000111100101010011111111011111001100010110110101101001010000100000101101011110000101111100110010000111010001011110000001010101 }
1'!
#14000
0'!
#14500
b10111110110100101011101010110111 ,
b00010000001001110101011010000101110101110101000110101111000000000000000000000000000000000000000000000000000000000000000000000000000000000000000000000000000000000000000000000000000000000000000000000000000000000000000000000000000000000000000000000000000000000000000000000000000000000000000000000000000000000000000000000000000000000000000000000000000000000000000000000000000000000000000000000000000000000000000000000000000000000000000000000000000000000000000000000000000000000000000000000000000000000000000000000000 -
b01110 K
b0001110 M
b0001111 N
b10111110110100101011101010110111 e
b10111110110100101011101010110111 g
b10000000110111101011000111111110 h
b11111001111111111010111011010010 i
b01011101000100101001111010111011 j
b00101101010001110001110100101000 k
b00100111000011101011101111001010 l
b11111101010111000010100110001100 m
b00000111100101010011111111011111 n
b00110001011011010110100101000010 o
b00001011010111100001011111001100 p
b00000101001101010110100111001110 r
b01111101010101111001111010111010 s
b00110110010100110110111110101110 t
b10101100011111100001110101011101 u
b11111100110000110000101110101100 x
b10110011101010110000111001101000 y
b00100011110100011100011101110110 {
b10110000011011100001101000010100 |
b1111100111111111101011101101001001011101000100101001111010111011001011010100011100011101001010000010011100001110101110111100101011111101010111000010100110001100000001111001010100111111110111110011000101101101011010010100001000001011010111100001011111001100 }
1'!
#15000
0'!
#15500
b00010000001001110101011010000101 ,
b11010111010100011010111100000000000000000000000000000000000000000000000000000000000000000000000000000000000000000000000000000000000000000000000000000000000000000000000000000000000000000000000000000000000000000000000000000000000000000000000000000000000000000000000000000000000000000000000000000000000000000000000000000000000000000000000000000000000000000000000000000000000000000000000000000000000000000000000000000000000000000000000000000000000000000000000000000000000000000000000000000000000000000000000000000000 -
b01111 K
b0001111 M
b0010000 N
b00010000001001110101011010000101 f
b00010000001001110101011010000101 g
b10011011110111000000011010100111 h
b10110000011011100001101000010100 i
b11111001111111111010111011010010 j
b01011101000100101001111010111011 k
b00101101010001110001110100101000 l
b00100011110100011100011101110110 m
b11111101010111000010100110001100 n
b00000111100101010011111111011111 o
b00110001011011010110100101000010 p
b00100101010101000011100110001101 r
b11111001011111101001111010010010 s
b01000100110101100101011100110100 t
b11011110101010001000011000110100 u
b01000001100101100010001111000010 w
b11100001011011011000011000101111 x
b00111110010101001111010111000110 y
b11110011010110101000011011001111 z
b00001110101101001010001101010111 {
b00011111110000100111101111110101 |
b1011000001101110000110100001010011111001111111111010111011010010010111010001001010011110101110110010110101000111000111010010100000100011110100011100011101110110111111010101110000101001100011000000011110010101001111111101111100110001011011010110100101000010 }
1'!
#16000
0'!
#16500
b11010111010100011010111100000000 ,
b00000000000000000000000000000000000000000000000000000000000000000000000000000000000000000000000000000000000000000000000000000000000000000000000000000000000000000000000000000000000000000000000000000000000000000000000000000000000000000000000000000000000000000000000000000000000000000000000000000000000000000000000000000000000000000000000000000000000000000000000000000000000000000000000000000000000000000000000000000000000000000000000000000000000000000000000000000000000000000000000000000000000000000000000000000000 -
b00000 K
b0010 L
b0010000 M
b0010001 N
b11010111010100011010111100000000 g
b11000001100110111111000101110100 h
b00011111110000100111101111110101 i
b10110000011011100001101000010100 j
b11111001111111111010111011010010 k
b01011101000100101001111010111011 l
b00001110101101001010001101010111 m
b00100011110100011100011101110110 n
b11111101010111000010100110001100 o
b00000111100101010011111111011111 p
b11110011110110001000101111011110 r
b10111001111011100011101011010100 s
b10010001101101111011010010010001 t
b01101100100010101010111110011110 u
b00000000111001100001101111001111 x
b01001011101001011110111101100101 y
b01011101111110001011101010001010 {
b01001100100011000000101100110100 |
b0001111111000010011110111111010110110000011011100001101000010100111110011111111110101110110100100101110100010010100111101011101100001110101101001010001101010111001000111101000111000111011101101111110101011100001010011000110000000111100101010011111111011111 }
1'!
#17000
0'!
#17500
b0010001 M
b0010010 N
b11001011100001011011101001010101 X
b10011100011010000110000011100010 Y
b10001001101110110101100000010000 Z
b10110101000001101011101010101110 [
b10111010101010001011000010000001 \
b11100110000010010000101100000000 ]
b00000000000000000000000000000000 ^
b11010101010100010011010000001110 `
b01010100110000111010011010100011 a
b01110010001111001010001000101100 b
b00010011010111111011101111110100 c
b10111110110100101011101010110111 d
b00010000001001110101011010000101 e
b11010111010100011010111100000000 f
b11110011010110101000011011001111 g
b11100100100110110110100111000001 h
b01001100100011000000101100110100 i
b00011111110000100111101111110101 j
b10110000011011100001101000010100 k
b11111001111111111010111011010010 l
b01011101111110001011101010001010 m
b00001110101101001010001101010111 n
b00100011110100011100011101110110 o
b11111101010111000010100110001100 p
b00101110101100011110011101110110 r
b00011100110011100001101100110100 s
b01111010101011011011011110011111 t
b10000100011000010001100011010011 u
b11001110100011010111101111000111 v
b11100010010101011010010100101001 w
b10001000011001010001101001100101 x
b10010111011110111101001011010011 y
b11010001001011001000000111101000 z
b10000010011001001100100100110111 {
b00011111111000001110110100111000 |
b0100110010001100000010110011010000011111110000100111101111110101101100000110111000011010000101001111100111111111101011101101001001011101111110001011101010001010000011101011010010100011010101110010001111010001110001110111011011111101010111000010100110001100 }
1'!
#18000
0'!
#18500
b0010010 M
b0010011 N
b10011100011010000110000011100010 X
b10001001101110110101100000010000 Y
b10110101000001101011101010101110 Z
b10111010101010001011000010000001 [
b11100110000010010000101100000000 \
b00000000000000000000000000000000 ]
b11010101010100010011010000001110 _
b01010100110000111010011010100011 `
b01110010001111001010001000101100 a
b00010011010111111011101111110100 b
b10111110110100101011101010110111 c
b00010000001001110101011010000101 d
b11010111010100011010111100000000 e
b11110011010110101000011011001111 f
b11010001001011001000000111101000 g
b11101111101111100100011110000110 h
b00011111111000001110110100111000 i
b01001100100011000000101100110100 j
b00011111110000100111101111110101 k
b10110000011011100001101000010100 l
b10000010011001001100100100110111 m
b01011101111110001011101010001010 n
b00001110101101001010001101010111 o
b00100011110100011100011101110110 p
b00001100111100001010101001000010 r
b00011111110000000110101100110100 s
b11101101100011000010010000110110 t
b11001010100111010100010001111100 u
b11100110001000000011111111011100 v
b00010011100000101101000101100111 w
b10111100010010100111111110100010 x
b00001101010011001000111101101010 y
b00001000010010000001010001010001 z
b01101100101110001001100110110110 {
b11001001100101110000111100001100 |
b0001111111100000111011010011100001001100100011000000101100110100000111111100001001111011111101011011000001101110000110100001010010000010011001001100100100110111010111011111100010111010100010100000111010110100101000110101011100100011110100011100011101110110 }
1'!
#19000
0'!
